NoC/2x2/graph.vcd
$date
     Mar 23, 2024       17:27:40
$end

$version
              SystemC 2.3.0-ASI --- Sep 10 2012 16:44:06
$end

$timescale
     1 ps
$end

$scope module SystemC $end
$var wire    1  aaa  s_clock       $end
$var wire    1  aab  d_clock       $end
$var wire    1  aac  r_clock       $end
$var wire   11  aad  si_source(0).data [10:0]  $end
$var wire    4  aae  si_source(0).id [3:0]  $end
$var wire    4  aaf  si_source(0).dest [3:0]  $end
$var wire    1  aag  si_source(0).pkt_clk       $end
$var wire    1  aah  si_source(0).h_t       $end
$var wire   11  aai  si_source(1).data [10:0]  $end
$var wire    4  aaj  si_source(1).id [3:0]  $end
$var wire    4  aak  si_source(1).dest [3:0]  $end
$var wire    1  aal  si_source(1).pkt_clk       $end
$var wire    1  aam  si_source(1).h_t       $end
$var wire   11  aan  si_source(2).data [10:0]  $end
$var wire    4  aao  si_source(2).id [3:0]  $end
$var wire    4  aap  si_source(2).dest [3:0]  $end
$var wire    1  aaq  si_source(2).pkt_clk       $end
$var wire    1  aar  si_source(2).h_t       $end
$var wire   11  aas  si_source(3).data [10:0]  $end
$var wire    4  aat  si_source(3).id [3:0]  $end
$var wire    4  aau  si_source(3).dest [3:0]  $end
$var wire    1  aav  si_source(3).pkt_clk       $end
$var wire    1  aaw  si_source(3).h_t       $end
$var wire   11  aax  si_sink(0).data [10:0]  $end
$var wire    4  aay  si_sink(0).id [3:0]  $end
$var wire    4  aaz  si_sink(0).dest [3:0]  $end
$var wire    1  aba  si_sink(0).pkt_clk       $end
$var wire    1  abb  si_sink(0).h_t       $end
$var wire   11  abc  si_sink(1).data [10:0]  $end
$var wire    4  abd  si_sink(1).id [3:0]  $end
$var wire    4  abe  si_sink(1).dest [3:0]  $end
$var wire    1  abf  si_sink(1).pkt_clk       $end
$var wire    1  abg  si_sink(1).h_t       $end
$var wire   11  abh  si_sink(2).data [10:0]  $end
$var wire    4  abi  si_sink(2).id [3:0]  $end
$var wire    4  abj  si_sink(2).dest [3:0]  $end
$var wire    1  abk  si_sink(2).pkt_clk       $end
$var wire    1  abl  si_sink(2).h_t       $end
$var wire   11  abm  si_sink(3).data [10:0]  $end
$var wire    4  abn  si_sink(3).id [3:0]  $end
$var wire    4  abo  si_sink(3).dest [3:0]  $end
$var wire    1  abp  si_sink(3).pkt_clk       $end
$var wire    1  abq  si_sink(3).h_t       $end
$upscope $end
$enddefinitions  $end

$comment
All initial values are dumped below at time 0 sec = 0 timescale units.
$end

$dumpvars
1aaa
0aab
0aac
b0 aad
b0 aae
b0 aaf
0aag
0aah
b0 aai
b0 aaj
b0 aak
0aal
0aam
b0 aan
b0 aao
b0 aap
0aaq
0aar
b0 aas
b0 aat
b0 aau
0aav
0aaw
b0 aax
b0 aay
b0 aaz
0aba
0abb
b0 abc
b0 abd
b0 abe
0abf
0abg
b0 abh
b0 abi
b0 abj
0abk
0abl
b0 abm
b0 abn
b0 abo
0abp
0abq
$end

#10000
1aab
1aac

#12500
0aab
0aac

#15000
1aab
1aac

#17500
0aab
0aac

#20000
1aab
1aac

#22500
0aab
0aac

#25000
1aab
1aac

#27500
0aab
0aac

#30000
1aab
1aac

#32500
0aab
0aac

#35000
1aab
1aac

#37500
0aab
0aac

#40000
1aab
1aac

#42500
0aab
0aac

#45000
1aab
1aac

#47500
0aab
0aac

#50000
1aab
1aac

#52500
0aab
0aac

#55000
1aab
1aac

#57500
0aab
0aac

#60000
1aab
1aac

#62500
0aaa
0aab
0aac

#65000
1aab
1aac

#67500
0aab
0aac

#70000
1aab
1aac

#72500
0aab
0aac

#75000
1aab
1aac

#77500
0aab
0aac

#80000
1aab
1aac

#82500
0aab
0aac

#85000
1aab
1aac

#87500
0aab
0aac

#90000
1aab
1aac

#92500
0aab
0aac

#95000
1aab
1aac

#97500
0aab
0aac

#100000
1aab
1aac

#102500
0aab
0aac

#105000
1aab
1aac

#107500
0aab
0aac

#110000
1aab
1aac

#112500
0aab
0aac

#115000
1aab
1aac

#117500
0aab
0aac

#120000
1aab
1aac

#122500
0aab
0aac

#125000
1aaa
1aab
1aac
b1111101011 aan
b10 aao
1aaq

#127500
0aab
0aac

#130000
1aab
1aac

#132500
0aab
0aac

#135000
1aab
1aac
b1111101011 aax
b10 aay
1aba

#137500
0aab
0aac

#140000
1aab
1aac

#142500
0aab
0aac

#145000
1aab
1aac

#147500
0aab
0aac

#150000
1aab
1aac

#152500
0aab
0aac

#155000
1aab
1aac

#157500
0aab
0aac

#160000
1aab
1aac

#162500
0aab
0aac

#165000
1aab
1aac

#167500
0aab
0aac

#170000
1aab
1aac

#172500
0aab
0aac

#175000
1aab
1aac

#177500
0aab
0aac

#180000
1aab
1aac

#182500
0aab
0aac

#185000
1aab
1aac

#187500
0aaa
0aab
0aac

#190000
1aab
1aac

#192500
0aab
0aac

#195000
1aab
1aac

#197500
0aab
0aac

#200000
1aab
1aac

#202500
0aab
0aac

#205000
1aab
1aac

#207500
0aab
0aac

#210000
1aab
1aac

#212500
0aab
0aac

#215000
1aab
1aac

#217500
0aab
0aac

#220000
1aab
1aac

#222500
0aab
0aac

#225000
1aab
1aac

#227500
0aab
0aac

#230000
1aab
1aac

#232500
0aab
0aac

#235000
1aab
1aac

#237500
0aab
0aac

#240000
1aab
1aac

#242500
0aab
0aac

#245000
1aab
1aac

#247500
0aab
0aac

#250000
1aaa
1aab
1aac
b1111101110 aan
0aaq

#252500
0aab
0aac

#255000
1aab
1aac

#257500
0aab
0aac

#260000
1aab
1aac
b1111101110 aax
0aba

#262500
0aab
0aac

#265000
1aab
1aac

#267500
0aab
0aac

#270000
1aab
1aac

#272500
0aab
0aac

#275000
1aab
1aac

#277500
0aab
0aac

#280000
1aab
1aac

#282500
0aab
0aac

#285000
1aab
1aac

#287500
0aab
0aac

#290000
1aab
1aac

#292500
0aab
0aac

#295000
1aab
1aac

#297500
0aab
0aac

#300000
1aab
1aac

#302500
0aab
0aac

#305000
1aab
1aac

#307500
0aab
0aac

#310000
1aab
1aac

#312500
0aaa
0aab
0aac

#315000
1aab
1aac

#317500
0aab
0aac

#320000
1aab
1aac

#322500
0aab
0aac

#325000
1aab
1aac

#327500
0aab
0aac

#330000
1aab
1aac

#332500
0aab
0aac

#335000
1aab
1aac

#337500
0aab
0aac

#340000
1aab
1aac

#342500
0aab
0aac

#345000
1aab
1aac

#347500
0aab
0aac

#350000
1aab
1aac

#352500
0aab
0aac

#355000
1aab
1aac

#357500
0aab
0aac

#360000
1aab
1aac

#362500
0aab
0aac

#365000
1aab
1aac

#367500
0aab
0aac

#370000
1aab
1aac

#372500
0aab
0aac

#375000
1aaa
1aab
1aac
b1111110001 aan
1aaq

#377500
0aab
0aac

#380000
1aab
1aac

#382500
0aab
0aac

#385000
1aab
1aac
b1111110001 aax
1aba

#387500
0aab
0aac

#390000
1aab
1aac

#392500
0aab
0aac

#395000
1aab
1aac

#397500
0aab
0aac

#400000
1aab
1aac

#402500
0aab
0aac

#405000
1aab
1aac

#407500
0aab
0aac

#410000
1aab
1aac

#412500
0aab
0aac

#415000
1aab
1aac

#417500
0aab
0aac

#420000
1aab
1aac

#422500
0aab
0aac

#425000
1aab
1aac

#427500
0aab
0aac

#430000
1aab
1aac

#432500
0aab
0aac

#435000
1aab
1aac

#437500
0aaa
0aab
0aac

#440000
1aab
1aac

#442500
0aab
0aac

#445000
1aab
1aac

#447500
0aab
0aac

#450000
1aab
1aac

#452500
0aab
0aac

#455000
1aab
1aac

#457500
0aab
0aac

#460000
1aab
1aac

#462500
0aab
0aac

#465000
1aab
1aac

#467500
0aab
0aac

#470000
1aab
1aac

#472500
0aab
0aac

#475000
1aab
1aac

#477500
0aab
0aac

#480000
1aab
1aac

#482500
0aab
0aac

#485000
1aab
1aac

#487500
0aab
0aac

#490000
1aab
1aac

#492500
0aab
0aac

#495000
1aab
1aac

#497500
0aab
0aac

#500000
1aaa
1aab
1aac
b1111110100 aan
0aaq

#502500
0aab
0aac

#505000
1aab
1aac

#507500
0aab
0aac

#510000
1aab
1aac
b1111110100 aax
0aba

