NoC/1x2/graph.vcd
$date
     Mar 16, 2024       16:31:13
$end

$version
              SystemC 2.3.0-ASI --- Sep 10 2012 16:44:06
$end

$timescale
     1 ps
$end

$scope module SystemC $end
$var wire    1  aaa  s_clock       $end
$var wire    1  aab  d_clock       $end
$var wire   11  aac  si_source(0).data [10:0]  $end
$var wire    4  aad  si_source(0).id [3:0]  $end
$var wire    4  aae  si_source(0).dest [3:0]  $end
$var wire    1  aaf  si_source(0).pkt_clk       $end
$var wire    1  aag  si_source(0).h_t       $end
$var wire   11  aah  si_source(1).data [10:0]  $end
$var wire    4  aai  si_source(1).id [3:0]  $end
$var wire    4  aaj  si_source(1).dest [3:0]  $end
$var wire    1  aak  si_source(1).pkt_clk       $end
$var wire    1  aal  si_source(1).h_t       $end
$var wire   11  aam  si_sink(0).data [10:0]  $end
$var wire    4  aan  si_sink(0).id [3:0]  $end
$var wire    4  aao  si_sink(0).dest [3:0]  $end
$var wire    1  aap  si_sink(0).pkt_clk       $end
$var wire    1  aaq  si_sink(0).h_t       $end
$var wire   11  aar  si_sink(1).data [10:0]  $end
$var wire    4  aas  si_sink(1).id [3:0]  $end
$var wire    4  aat  si_sink(1).dest [3:0]  $end
$var wire    1  aau  si_sink(1).pkt_clk       $end
$var wire    1  aav  si_sink(1).h_t       $end
$upscope $end
$enddefinitions  $end

$comment
All initial values are dumped below at time 0 sec = 0 timescale units.
$end

$dumpvars
1aaa
0aab
b0 aac
b0 aad
b0 aae
0aaf
0aag
b0 aah
b0 aai
b0 aaj
0aak
0aal
b0 aam
b0 aan
b0 aao
0aap
0aaq
b0 aar
b0 aas
b0 aat
0aau
0aav
$end

#10000
1aab

#12500
0aab

#15000
1aab

#17500
0aab

#20000
1aab

#22500
0aab

#25000
1aab

#27500
0aab

#30000
1aab

#32500
0aab

#35000
1aab

#37500
0aab

#40000
1aab

#42500
0aab

#45000
1aab

#47500
0aab

#50000
1aab

#52500
0aab

#55000
1aab

#57500
0aab

#60000
1aab

#62500
0aaa
0aab

#65000
1aab

#67500
0aab

#70000
1aab

#72500
0aab

#75000
1aab

#77500
0aab

#80000
1aab

#82500
0aab

#85000
1aab

#87500
0aab

#90000
1aab

#92500
0aab

#95000
1aab

#97500
0aab

#100000
1aab

#102500
0aab

#105000
1aab

#107500
0aab

#110000
1aab

#112500
0aab

#115000
1aab

#117500
0aab

#120000
1aab

#122500
0aab

#125000
1aaa
1aab
b1111101001 aac
b1 aae
1aaf
b1111101001 aah
b1 aaj
1aak
b1111101001 aam
b1 aao
1aap
b1111101001 aar
b1 aat
1aau

#127500
0aab

#130000
1aab

#132500
0aab

#135000
1aab

#137500
0aab

#140000
1aab

#142500
0aab

#145000
1aab

#147500
0aab

#150000
1aab

#152500
0aab

#155000
1aab

#157500
0aab

#160000
1aab

#162500
0aab

#165000
1aab

#167500
0aab

#170000
1aab

#172500
0aab

#175000
1aab

#177500
0aab

#180000
1aab

#182500
0aab

#185000
1aab

#187500
0aaa
0aab

#190000
1aab

#192500
0aab

#195000
1aab

#197500
0aab

#200000
1aab

#202500
0aab

#205000
1aab

#207500
0aab

#210000
1aab

#212500
0aab

#215000
1aab

#217500
0aab

#220000
1aab

#222500
0aab

#225000
1aab

#227500
0aab

#230000
1aab

#232500
0aab

#235000
1aab

#237500
0aab

#240000
1aab

#242500
0aab

#245000
1aab

#247500
0aab

#250000
1aaa
1aab
b1111101010 aac
0aaf
b1111101010 aah
0aak
b1111101010 aam
0aap
b1111101010 aar
0aau

#252500
0aab

#255000
1aab

#257500
0aab

#260000
1aab

#262500
0aab

#265000
1aab

#267500
0aab

#270000
1aab

#272500
0aab

#275000
1aab

#277500
0aab

#280000
1aab

#282500
0aab

#285000
1aab

#287500
0aab

#290000
1aab

#292500
0aab

#295000
1aab

#297500
0aab

#300000
1aab

#302500
0aab

#305000
1aab

#307500
0aab

#310000
1aab

#312500
0aaa
0aab

#315000
1aab

#317500
0aab

#320000
1aab

#322500
0aab

#325000
1aab

#327500
0aab

#330000
1aab

#332500
0aab

#335000
1aab

#337500
0aab

#340000
1aab

#342500
0aab

#345000
1aab

#347500
0aab

#350000
1aab

#352500
0aab

#355000
1aab

#357500
0aab

#360000
1aab

#362500
0aab

#365000
1aab

#367500
0aab

#370000
1aab

#372500
0aab

#375000
1aaa
1aab
b1111101011 aac
1aaf
b1111101011 aah
1aak
b1111101011 aam
1aap
b1111101011 aar
1aau

#377500
0aab

#380000
1aab

#382500
0aab

#385000
1aab

#387500
0aab

#390000
1aab

#392500
0aab

#395000
1aab

#397500
0aab

#400000
1aab

#402500
0aab

#405000
1aab

#407500
0aab

#410000
1aab

#412500
0aab

#415000
1aab

#417500
0aab

#420000
1aab

#422500
0aab

#425000
1aab

#427500
0aab

#430000
1aab

#432500
0aab

#435000
1aab

#437500
0aaa
0aab

#440000
1aab

#442500
0aab

#445000
1aab

#447500
0aab

#450000
1aab

#452500
0aab

#455000
1aab

#457500
0aab

#460000
1aab

#462500
0aab

#465000
1aab

#467500
0aab

#470000
1aab

#472500
0aab

#475000
1aab

#477500
0aab

#480000
1aab

#482500
0aab

#485000
1aab

#487500
0aab

#490000
1aab

#492500
0aab

#495000
1aab

#497500
0aab

#500000
1aaa
1aab
b1111101100 aac
0aaf
b1111101100 aah
0aak
b1111101100 aam
0aap
b1111101100 aar
0aau

#502500
0aab

#505000
1aab

#507500
0aab

#510000
1aab

#512500
0aab

#515000
1aab

#517500
0aab

#520000
1aab

#522500
0aab

#525000
1aab

#527500
0aab

#530000
1aab

#532500
0aab

#535000
1aab

#537500
0aab

#540000
1aab

#542500
0aab

#545000
1aab

#547500
0aab

#550000
1aab

#552500
0aab

#555000
1aab

#557500
0aab

#560000
1aab

#562500
0aaa
0aab

#565000
1aab

#567500
0aab

#570000
1aab

#572500
0aab

#575000
1aab

#577500
0aab

#580000
1aab

#582500
0aab

#585000
1aab

#587500
0aab

#590000
1aab

#592500
0aab

#595000
1aab

#597500
0aab

#600000
1aab

#602500
0aab

#605000
1aab

#607500
0aab

#610000
1aab

#612500
0aab

#615000
1aab

#617500
0aab

#620000
1aab

#622500
0aab

#625000
1aaa
1aab
b1111101101 aac
1aaf
1aag
b1111101101 aah
1aak
1aal
b1111101101 aam
1aap
1aaq
b1111101101 aar
1aau
1aav

#627500
0aab

#630000
1aab

#632500
0aab

#635000
1aab

#637500
0aab

#640000
1aab

#642500
0aab

#645000
1aab

#647500
0aab

#650000
1aab

#652500
0aab

#655000
1aab

#657500
0aab

#660000
1aab

#662500
0aab

#665000
1aab

#667500
0aab

#670000
1aab

#672500
0aab

#675000
1aab

#677500
0aab

#680000
1aab

#682500
0aab

#685000
1aab

#687500
0aaa
0aab

#690000
1aab

#692500
0aab

#695000
1aab

#697500
0aab

#700000
1aab

#702500
0aab

#705000
1aab

#707500
0aab

#710000
1aab

#712500
0aab

#715000
1aab

#717500
0aab

#720000
1aab

#722500
0aab

#725000
1aab

#727500
0aab

#730000
1aab

#732500
0aab

#735000
1aab

#737500
0aab

#740000
1aab

#742500
0aab

#745000
1aab

#747500
0aab

#750000
1aaa
1aab
b1111101110 aac
0aaf
0aag
b1111101110 aah
0aak
0aal
b1111101110 aam
0aap
0aaq
b1111101110 aar
0aau
0aav

#752500
0aab

#755000
1aab

#757500
0aab

#760000
1aab

#762500
0aab

#765000
1aab

#767500
0aab

#770000
1aab

#772500
0aab

#775000
1aab

#777500
0aab

#780000
1aab

#782500
0aab

#785000
1aab

#787500
0aab

#790000
1aab

#792500
0aab

#795000
1aab

#797500
0aab

#800000
1aab

#802500
0aab

#805000
1aab

#807500
0aab

#810000
1aab

#812500
0aaa
0aab

#815000
1aab

#817500
0aab

#820000
1aab

#822500
0aab

#825000
1aab

#827500
0aab

#830000
1aab

#832500
0aab

#835000
1aab

#837500
0aab

#840000
1aab

#842500
0aab

#845000
1aab

#847500
0aab

#850000
1aab

#852500
0aab

#855000
1aab

#857500
0aab

#860000
1aab

#862500
0aab

#865000
1aab

#867500
0aab

#870000
1aab

#872500
0aab

#875000
1aaa
1aab
b1111101111 aac
1aaf
b1111101111 aah
1aak
b1111101111 aam
1aap
b1111101111 aar
1aau

#877500
0aab

#880000
1aab

#882500
0aab

#885000
1aab

#887500
0aab

#890000
1aab

#892500
0aab

#895000
1aab

#897500
0aab

#900000
1aab

#902500
0aab

#905000
1aab

#907500
0aab

#910000
1aab

#912500
0aab

#915000
1aab

#917500
0aab

#920000
1aab

#922500
0aab

#925000
1aab

#927500
0aab

#930000
1aab

#932500
0aab

#935000
1aab

#937500
0aaa
0aab

#940000
1aab

#942500
0aab

#945000
1aab

#947500
0aab

#950000
1aab

#952500
0aab

#955000
1aab

#957500
0aab

#960000
1aab

#962500
0aab

#965000
1aab

#967500
0aab

#970000
1aab

#972500
0aab

#975000
1aab

#977500
0aab

#980000
1aab

#982500
0aab

#985000
1aab

#987500
0aab

#990000
1aab

#992500
0aab

#995000
1aab

#997500
0aab

#1000000
1aaa
1aab
b1111110000 aac
0aaf
b1111110000 aah
0aak
b1111110000 aam
0aap
b1111110000 aar
0aau

